{
    "Categories": "Qt;KDE;X-KDE-settings-personalization;X-KDE-information;",
    "KPlugin": {
        "BugReportUrl": "https://bugs.kde.org/enter_bug.cgi?product=kinfocenter&component=general",
        "Description": "Information About This System",
        "Description[ar]": "معلومات عن هذا النّظام",
        "Description[az]": "Bu sistem haqqında məlumat",
        "Description[bg]": "Информация за системата",
        "Description[ca@valencia]": "Informació quant a este sistema",
        "Description[ca]": "Informació quant a aquest sistema",
        "Description[cs]": "Informace o tomto systému",
        "Description[de]": "Informationen über dieses System",
        "Description[en_GB]": "Information About This System",
        "Description[es]": "Información sobre este sistema",
        "Description[eu]": "Sistema honi buruzko informazioa",
        "Description[fi]": "Tietoa tästä järjestelmästä",
        "Description[fr]": "Informations concernant ce système",
        "Description[ia]": "Information re iste systema",
        "Description[id]": "Informasi Tentang Sistem Ini",
        "Description[it]": "Informazioni su questo sistema",
        "Description[ja]": "このシステムに関する情報",
        "Description[ka]": "ინფორმაცია ამ სისტემის შესახებ",
        "Description[ko]": "이 시스템 정보",
        "Description[nl]": "Informatie over dit systeem",
        "Description[nn]": "Informasjon om systemet",
        "Description[pl]": "Szczegóły o systemie",
        "Description[pt]": "Informação Sobre Este Sistema",
        "Description[pt_BR]": "Informações sobre este sistema",
        "Description[ro]": "Informații despre acest sistem",
        "Description[ru]": "Сведения об этой системе",
        "Description[sk]": "Informácia o tomto systéme",
        "Description[sl]": "Informacije o tem sistemu",
        "Description[sv]": "Information om systemet",
        "Description[ta]": "இக்கணினியை பற்றிய விவரங்கள்",
        "Description[tr]": "Sistem Hakkında Bilgi",
        "Description[uk]": "Інформація щодо цієї системи",
        "Description[vi]": "Thông tin về hệ thống này",
        "Description[x-test]": "xxInformation About This Systemxx",
        "Description[zh_CN]": "关于本系统的信息",
        "Icon": "ktip",
        "Name": "About this System",
        "Name[ar]": "عن النّظام",
        "Name[az]": "Bu sistem haqqında",
        "Name[bg]": "Информация за системата",
        "Name[ca@valencia]": "Quant a este sistema",
        "Name[ca]": "Quant a aquest sistema",
        "Name[cs]": "O tomto systému",
        "Name[de]": "Über dieses System",
        "Name[el]": "Σχετικά με αυτό το σύστημα",
        "Name[en_GB]": "About this System",
        "Name[es]": "Acerca de este sistema",
        "Name[eu]": "Sistema honi buruz",
        "Name[fi]": "Tietoa tästä järjestelmästä",
        "Name[fr]": "À propos de ce système",
        "Name[ia]": "Re iste systema",
        "Name[id]": "Tentang Sistem Ini",
        "Name[it]": "Informazioni sul sistema",
        "Name[ja]": "このシステムについて",
        "Name[ka]": "ამ სისტემის შესახებ",
        "Name[ko]": "이 시스템 정보",
        "Name[lt]": "Apie šią sistemą",
        "Name[nl]": "Over dit systeem",
        "Name[nn]": "Om dette systemet",
        "Name[pl]": "O tym systemie",
        "Name[pt]": "Acerca deste Sistema",
        "Name[pt_BR]": "Sobre este sistema",
        "Name[ro]": "Despre acest sistem",
        "Name[ru]": "О системе",
        "Name[sk]": "O tomto systéme",
        "Name[sl]": "O tem sistemu",
        "Name[sv]": "Om systemet",
        "Name[ta]": "இக்கணினியை பற்றி",
        "Name[tg]": "Иттилоот дар бораи низоми ҷорӣ",
        "Name[tr]": "Sistem Hakkında",
        "Name[uk]": "Про цю систему",
        "Name[vi]": "Về hệ thống này",
        "Name[x-test]": "xxAbout this Systemxx",
        "Name[zh_CN]": "关于本系统"
    },
    "X-KDE-KInfoCenter-Category": "basic_information",
    "X-KDE-Keywords": "about,info,information,distribution,distro,system,kernel,qt,kde,version",
    "X-KDE-Keywords[ast]": "información,distribución,distro,sistema,kernel,qt,kde,plasma",
    "X-KDE-Keywords[az]": "about,info,information,distribution,distro,system,kernel,qt,kdehaqqında,məlumat,distribütör,nüvə,prosessor,əməliyyat komputer,sistemi,yaddaş,arxitektura",
    "X-KDE-Keywords[ca]": "quant a,info,informació,distribució,distro,sistema,nucli,qt,kde",
    "X-KDE-Keywords[cs]": "o aplikaci,informace,distribuce,distro,systém,jádro,qt,kde",
    "X-KDE-Keywords[da]": "om,info,information,distribution,distro,system,kerne,qt,kde",
    "X-KDE-Keywords[de]": "Über,Info,Information,Distribution,Distro,System,Kernel,Qt,KDE",
    "X-KDE-Keywords[el]": "περίγραμμα,info,πληροφορίες,διανομή,distro,σύστημα,πυρήνας,qt,kde",
    "X-KDE-Keywords[en_GB]": "about,info,information,distribution,distro,system,kernel,qt,kde",
    "X-KDE-Keywords[es]": "acerca de,info,información,distribución,distro,sistema,kernel,qt,kde",
    "X-KDE-Keywords[et]": "teave,info,distributsioon,distro,süsteem,kernel,qt,kde",
    "X-KDE-Keywords[eu]": "hori buruz,info,informazioa,banaketa,distribuzioa,distro,sistema,muina,kernela,qt,kde",
    "X-KDE-Keywords[fi]": "tietoja,tietoa,tiedot,info,jakelu,distribuutio,distro,järjestelmä,ydin,käyttöjärjestelmäydin,kernel,qt,kde",
    "X-KDE-Keywords[fr]": "à propos,info,information,distribution,distro,system,kernel,qt,kde",
    "X-KDE-Keywords[gl]": "sobre,info,información,distribución,sistema,information,distribution,distro,system,kernel,qt,kde",
    "X-KDE-Keywords[hu]": "névjegy,infó,információk,disztribúció,disztró,rendszer,kernel,qt,kde",
    "X-KDE-Keywords[ia]": "about,info,information,distribution,distro,system,kernel,qt,kde",
    "X-KDE-Keywords[id]": "tentang,informasi,distribusi,distro,sistem,kernel,qt,kde",
    "X-KDE-Keywords[it]": "informazioni,info,distribuzione,distro,sistema,kernel,qt,kde",
    "X-KDE-Keywords[ja]": "情報,ディストリビューション,ディストリ,システム,カーネル",
    "X-KDE-Keywords[ko]": "about,info,information,distribution,distro,system,kernel,qt,kde,정보,배포판,시스템,커널",
    "X-KDE-Keywords[lt]": "apie,informacija,distribucija,platinimas,platinamasis paketas,distro,sistema,branduolys,qt,kde",
    "X-KDE-Keywords[nl]": "over,info,informatie,distributie,distro,systeem,kernel,qt,kde",
    "X-KDE-Keywords[nn]": "om,info,informasjon,distribusjon,distro,system,kjerne,qt,kde",
    "X-KDE-Keywords[pa]": "ਬਾਰੇ,ਜਾਣਕਾਰੀ,ਗਿਆਨ,ਵੰਡ,ਡਿਸਟਰੀਬਿਊਸ਼ਨ,ਸਿਸਟਮ,ਕਰਨਲ,ਕਿਉਟੀ,ਕੇਡੀਈ",
    "X-KDE-Keywords[pl]": "info,informacje,dystrybucja,distro,system,jądro,qt,kde",
    "X-KDE-Keywords[pt]": "acerca,informação,distribuição,sistema,'kernel',qt,kde",
    "X-KDE-Keywords[pt_BR]": "sobre,info,informações,distribuição,sistema,kernel,qt,kde",
    "X-KDE-Keywords[ro]": "despre,info,informații,distribuție,distro,sistem,nucleu,qt,kde",
    "X-KDE-Keywords[ru]": "about,info,information,distribution,distro,system,kernel,qt,kde,информация,сведения,дистрибутив,ядро,процессор,компьютер,операционная система,память,архитектура",
    "X-KDE-Keywords[sk]": "o,info,informácia,distribúcia,distro,systém,jadro,qt,kde",
    "X-KDE-Keywords[sl]": "podrobnosti,podatki,informacije,distribucija,sistem,jedro,kernel,qt,kde",
    "X-KDE-Keywords[sv]": "om,info,information,distribution,distro,system,kernel,qt,kde",
    "X-KDE-Keywords[uk]": "information,distribution,distro,system,kernel,qt,kde,інформація,дистрибутив,дистро,система,ядро,процесор,комп’ютер,інфо",
    "X-KDE-Keywords[vi]": "about,info,information,distribution,distro,system,kernel,qt,kde,về,thông tin,bản phân phối,hệ thống,nhân",
    "X-KDE-Keywords[x-test]": "xxaboutxx,xxinfoxx,xxinformationxx,xxdistributionxx,xxdistroxx,xxsystemxx,xxkernelxx,xxqtxx,xxkdexx",
    "X-KDE-Keywords[zh_CN]": "about,info,information,distribution,distro,system,kernel,qt,kde,关于,信息,发行版,系统,内核,qt,kde",
    "X-KDE-Keywords[zh_TW]": "about,info,information,distribution,distro,system,kernel,qt,kde,關於,資訊,信息,發行版,發行,系統,核心,內核",
    "X-KDE-System-Settings-Parent-Category": "system-administration",
    "X-KDE-Weight": 0
}
